\begin{thebibliography}{1}

\bibitem{ibm}
M~Jones.
\newblock Evolution of shells in linux, 2011.
\newblock \url{https://www.ibm.com/developerworks/library/l-linux-shells/}.

\bibitem{classbook}
Andrew~S. Tanenbaum and Herbet Bos.
\newblock {\em Modern Operating Systems}.
\newblock Prentice Hall Press, 4 edition, 2014.

\bibitem{cornell}
Cornell University.
\newblock Writing your own shell, 2011.
\newblock
  \url{https://www.cs.cornell.edu/courses/cs414/2004su/homework/shell/shell.html}.

\end{thebibliography}
