\relax 
\providecommand\hyper@newdestlabel[2]{}
\providecommand\HyperFirstAtBeginDocument{\AtBeginDocument}
\HyperFirstAtBeginDocument{\ifx\hyper@anchor\@undefined
\global\let\oldcontentsline\contentsline
\gdef\contentsline#1#2#3#4{\oldcontentsline{#1}{#2}{#3}}
\global\let\oldnewlabel\newlabel
\gdef\newlabel#1#2{\newlabelxx{#1}#2}
\gdef\newlabelxx#1#2#3#4#5#6{\oldnewlabel{#1}{{#2}{#3}}}
\AtEndDocument{\ifx\hyper@anchor\@undefined
\let\contentsline\oldcontentsline
\let\newlabel\oldnewlabel
\fi}
\fi}
\global\let\hyper@last\relax 
\gdef\HyperFirstAtBeginDocument#1{#1}
\providecommand\HyField@AuxAddToFields[1]{}
\providecommand\HyField@AuxAddToCoFields[2]{}
\citation{cornell}
\citation{classbook}
\citation{classbook}
\citation{ibm}
\citation{ibm}
\citation{ibm}
\@writefile{toc}{\contentsline {section}{\numberline {1}Introduction}{1}{section.1}}
\@writefile{toc}{\contentsline {subsection}{\numberline {1.1}Motivation}{1}{subsection.1.1}}
\@writefile{toc}{\contentsline {subsection}{\numberline {1.2}What is a Shell?}{1}{subsection.1.2}}
\@writefile{toc}{\contentsline {subsection}{\numberline {1.3}Brief History of Shells}{1}{subsection.1.3}}
\citation{cornell}
\@writefile{toc}{\contentsline {subsection}{\numberline {1.4}How Do Shells Relate to Operating Systems?}{2}{subsection.1.4}}
\@writefile{toc}{\contentsline {section}{\numberline {2}Our Mechanism}{2}{section.2}}
\@writefile{toc}{\contentsline {subsection}{\numberline {2.1}History Command}{2}{subsection.2.1}}
\newlabel{historyfig}{{2.1}{2}{History Command}{subsection.2.1}{}}
\@writefile{lof}{\contentsline {figure}{\numberline {1}{\ignorespaces Demonstration of history command}}{2}{figure.1}}
\@writefile{toc}{\contentsline {subsection}{\numberline {2.2}! Command}{3}{subsection.2.2}}
\newlabel{exclamation}{{2.2}{3}{! Command}{subsection.2.2}{}}
\@writefile{lof}{\contentsline {figure}{\numberline {2}{\ignorespaces Demonstration of \texttt  {!} command}}{3}{figure.2}}
\@writefile{toc}{\contentsline {subsection}{\numberline {2.3}Silly Features}{3}{subsection.2.3}}
\newlabel{silly}{{2.3}{4}{Silly Features}{subsection.2.3}{}}
\@writefile{lof}{\contentsline {figure}{\numberline {3}{\ignorespaces Demonstration of two fun commands}}{4}{figure.3}}
\@writefile{toc}{\contentsline {subsection}{\numberline {2.4}Updated Help Menu}{4}{subsection.2.4}}
\newlabel{help}{{2.4}{4}{Updated Help Menu}{subsection.2.4}{}}
\@writefile{lof}{\contentsline {figure}{\numberline {4}{\ignorespaces Screenshot of new, updated help menu}}{4}{figure.4}}
\@writefile{toc}{\contentsline {section}{\numberline {3}Discussion}{5}{section.3}}
\@writefile{toc}{\contentsline {subsection}{\numberline {3.1}Unable to Work}{5}{subsection.3.1}}
\@writefile{toc}{\contentsline {subsection}{\numberline {3.2}Challenges and Takeaways}{5}{subsection.3.2}}
\bibstyle{plain}
\bibdata{Bib/finalReportBib}
\bibcite{ibm}{1}
\bibcite{classbook}{2}
\bibcite{cornell}{3}
